Example Analysis • jpeg
…
bird_collisions_species <-
  bird_collisions %>%
  group_by(species, flight_call) %>%
  summarise(count = n()) %>%
  mutate(species = fct_reorder(species, count, .desc = T)) %>%
  arrange(desc(count))
#> `summarise()` has grouped output by 'species'. You can override using the
#> `.groups` argument.

bird_collisions_species
#> # A tibble: 84 × 3
#> # Groups:   species [81]
#>    species     flight_call count
#>    <fct>       <chr>       <int>
#>  1 albicollis  Yes         10133
#>  2 hyemalis    Yes          6303
#>  3 melodia     Yes          5124
#>  4 georgiana   Yes          4910
#>  5 aurocapilla Yes          4580
#>  6 guttatus    Yes          3729
#>  7 americana   Yes          2735
#>  8 peregrina   Yes          2515
#>  9 iliaca      Yes          2443
#> 10 ustulatus   Yes          2331
#> # ℹ 74 more rows
…
Finally, let’s look at the distribution of the light levels as the
time goes from 2000 to 2018.

light_years <-
  mp_light %>%
  mutate(year = lubridate::year(date)) 

light_years
#> # A tibble: 3,067 × 3
#>    date       light_score  year
#>    <date>           <dbl> <dbl>
#>  1 2000-03-06           3  2000
#>  2 2000-03-08          15  2000
#>  3 2000-03-10           3  2000
#>  4 2000-03-31           3  2000
#>  5 2000-04-02          17  2000
#>  6 2000-04-14           4  2000
#>  7 2000-04-15           4  2000
#>  8 2000-04-30          14  2000
#>  9 2000-05-01          14  2000
#> 10 2000-05-03           3  2000
#> # ℹ 3,057 more rows
…
